{
    "KPlugin": {
        "Authors": [
            {
                "Email": "wolff@julianwolff.de",
                "Name": "Julian Wolff",
                "Name[ar]": "Julian Wolff",
                "Name[az]": "Julian Wolff",
                "Name[ca@valencia]": "Julian Wolff",
                "Name[ca]": "Julian Wolff",
                "Name[cs]": "Julian Wolff",
                "Name[da]": "Julian Wolff",
                "Name[de]": "Julian Wolff",
                "Name[el]": "Julian Wolff",
                "Name[en_GB]": "Julian Wolff",
                "Name[es]": "Julian Wolff",
                "Name[et]": "Julian Wolff",
                "Name[eu]": "Julian Wolff",
                "Name[fi]": "Julian Wolff",
                "Name[fr]": "Julian Wolff",
                "Name[gl]": "Julian Wolff",
                "Name[hu]": "Julian Wolff",
                "Name[ia]": "Julian Wolff",
                "Name[it]": "Julian Wolff",
                "Name[ko]": "Julian Wolff",
                "Name[lt]": "Julian Wolff",
                "Name[nl]": "Julian Wolff",
                "Name[nn]": "Julian Wolff",
                "Name[pl]": "Julian Wolff",
                "Name[pt]": "Julian Wolff",
                "Name[pt_BR]": "Juliano",
                "Name[ro]": "Julian Wolff",
                "Name[ru]": "Julian Wolff",
                "Name[sk]": "Julian Wolff",
                "Name[sl]": "Julian Wolff",
                "Name[sr@ijekavian]": "Јулијан Волф",
                "Name[sr@ijekavianlatin]": "Julijan Volf",
                "Name[sr@latin]": "Julijan Volf",
                "Name[sr]": "Јулијан Волф",
                "Name[sv]": "Julian Wolff",
                "Name[tr]": "Julian Wolff",
                "Name[uk]": "Julian Wolff",
                "Name[vi]": "Julian Wolff",
                "Name[x-test]": "xxJulian Wolffxx",
                "Name[zh_CN]": "Julian Wolff",
                "Name[zh_TW]": "Julian Wolff"
            }
        ],
        "Copyright": "© 2017 Julian Wolff",
        "Copyright[ar]": "© 2017 Julian Wolff",
        "Copyright[az]": "© 2017 Julian Wolff",
        "Copyright[ca@valencia]": "© 2017 Julian Wolff",
        "Copyright[ca]": "© 2017 Julian Wolff",
        "Copyright[cs]": "© 2017 Julian Wolff",
        "Copyright[da]": "© 2017 Julian Wolff",
        "Copyright[de]": "© 2017 Julian Wolff",
        "Copyright[el]": "© 2017 Julian Wolff",
        "Copyright[en_GB]": "© 2017 Julian Wolff",
        "Copyright[es]": "© 2017 Julian Wolff",
        "Copyright[et]": "© 2017: Julian Wolff",
        "Copyright[eu]": "© 2017 Julian Wolff",
        "Copyright[fi]": "© 2017 Julian Wolff",
        "Copyright[fr]": "© 2017 Julian Wolff",
        "Copyright[gl]": "© 2017 Julian Wolff",
        "Copyright[hu]": "© Julian Wolff, 2017.",
        "Copyright[ia]": "© 2017 Julian Wolff",
        "Copyright[it]": "© 2017 Julian Wolff",
        "Copyright[ko]": "© 2017 Julian Wolff",
        "Copyright[lt]": "© 2017 Julian Wolff",
        "Copyright[nl]": "© 2017 Julian Wolff",
        "Copyright[nn]": "© 2017 Julian Wolff",
        "Copyright[pa]": "© 2017 Julian Wolff",
        "Copyright[pl]": "© 2017 Julian Wolff",
        "Copyright[pt]": "© 2017 Julian Wolff",
        "Copyright[pt_BR]": "© 2017 Julian Wolff",
        "Copyright[ro]": "© 2017 Julian Wolff",
        "Copyright[ru]": "© Julian Wolff, 2017",
        "Copyright[sk]": "© 2017 Julian Wolff",
        "Copyright[sl]": "© 2017 Julian Wolff",
        "Copyright[sr@ijekavian]": "© 2017, Јулијан Волф",
        "Copyright[sr@ijekavianlatin]": "© 2017, Julijan Volf",
        "Copyright[sr@latin]": "© 2017, Julijan Volf",
        "Copyright[sr]": "© 2017, Јулијан Волф",
        "Copyright[sv]": "© 2017 Julian Wolff",
        "Copyright[tr]": "© 2017 Julian Wolff",
        "Copyright[uk]": "© Julian Wolff, 2017",
        "Copyright[vi]": "© 2017 Julian Wolff",
        "Copyright[x-test]": "xx© 2017 Julian Wolffxx",
        "Copyright[zh_CN]": "© 2017 Julian Wolff",
        "Copyright[zh_TW]": "© 2017 Julian Wolff",
        "Id": "okular_markdown",
        "License": "GPL",
        "MimeTypes": [
            "text/markdown",
            "text/x-markdown"
        ],
        "Name": "Markdown Backend",
        "Name[ar]": "خلفية مارك داون",
        "Name[az]": "Markdown modulu",
        "Name[ca@valencia]": "Dorsal Markdown",
        "Name[ca]": "Dorsal Markdown",
        "Name[cs]": "Podpůrná vrstva Markdown",
        "Name[da]": "Markdown-backend",
        "Name[de]": "Anzeigemodul für Markdown",
        "Name[el]": "Σύστημα υποστήριξης markdown",
        "Name[en_GB]": "Markdown Backend",
        "Name[es]": "Motor para Markdown",
        "Name[et]": "Markdowni taustaprogramm",
        "Name[eu]": "Markdown-en bizkarraldekoa",
        "Name[fi]": "Markdown-taustaosa",
        "Name[fr]": "Moteur de markdown",
        "Name[gl]": "Infraestrutura de Markdown",
        "Name[hu]": "Markdown modul",
        "Name[ia]": "Retro-Administration Markdown",
        "Name[it]": "Backend Markdown",
        "Name[ko]": "Markdown 백엔드",
        "Name[lt]": "Markdown programinė sąsaja",
        "Name[nl]": "Markdown-backend",
        "Name[nn]": "Markdown-motor",
        "Name[pl]": "Obsługa Markdown",
        "Name[pt]": "Infra-Estrutura de Markdown",
        "Name[pt_BR]": "Infraestrutura Markdown",
        "Name[ro]": "Platformă Markdown",
        "Name[ru]": "Модуль поддержки формата Markdown",
        "Name[sk]": "Markdown backend",
        "Name[sl]": "Zaledje za Markdown",
        "Name[sr@ijekavian]": "Позадина за маркдаун",
        "Name[sr@ijekavianlatin]": "Pozadina za Markdown",
        "Name[sr@latin]": "Pozadina za Markdown",
        "Name[sr]": "Позадина за маркдаун",
        "Name[sv]": "Markdown-gränssnitt",
        "Name[tr]": "Markdown Arka Ucu",
        "Name[uk]": "Модуль Markdown",
        "Name[vi]": "Hậu phương Markdown",
        "Name[x-test]": "xxMarkdown Backendxx",
        "Name[zh_CN]": "Markdown 后端",
        "Name[zh_TW]": "Markdown 後端介面",
        "Version": "0.1.0"
    },
    "X-KDE-Priority": 1,
    "X-KDE-okularAPIVersion": 1,
    "X-KDE-okularHasInternalSettings": true
}
